…
``` r
rbloggers$items
```

    ## # A tibble: 1,000 x 20
    ##    id    keywords originId fingerprint title crawled             published           canonical author alternate unread
    ##  * <chr> <list>   <chr>    <chr>       <chr> <dttm>              <dttm>              <list>    <chr>  <list>    <lgl> 
    ##  1 XGq6… <chr [1… http://… 2e6f8adb    R or… 2018-12-29 19:10:26 2018-12-29 19:00:00 <data.fr… Econo… <data.fr… FALSE 
    ##  2 XGq6… <chr [1… https:/… 3d7edcd1    Leaf… 2018-12-29 18:40:05 2018-12-29 12:06:13 <data.fr… Giorg… <data.fr… FALSE 
    ##  3 XGq6… <chr [1… http://… 69b6d432    Part… 2018-12-29 04:59:18 2018-12-29 04:26:16 <data.fr… chris… <data.fr… FALSE 
    ##  4 XGq6… <chr [1… https:/… edd91496    My R… 2018-12-28 19:50:35 2018-12-27 19:00:00 <data.fr… r-tas… <data.fr… FALSE 
    ##  5 XGq6… <chr [1… https:/… f7a0066a    My #… 2018-12-28 14:20:54 2018-12-27 19:00:00 <data.fr… Posts… <data.fr… FALSE 
    ##  6 XGq6… <chr [1… http://… 3b0604a5    Part… 2018-12-28 11:10:43 2018-12-28 03:39:35 <data.fr… chris… <data.fr… FALSE 
    ##  7 XGq6… <chr [1… http://… 69a21e91    Usin… 2018-12-28 07:53:55 2018-12-28 00:48:27 <data.fr… kjytay <data.fr… FALSE 
    ##  8 XGq6… <chr [1… http://… 1fc5fb9b    Some… 2018-12-27 22:22:47 2018-12-26 19:00:00 <data.fr… Econo… <data.fr… FALSE 
    ##  9 XGq6… <chr [1… https:/… e5ba8852    Shou… 2018-12-27 18:55:33 2018-12-26 19:00:00 <data.fr… An Ac… <data.fr… FALSE 
    ## 10 XGq6… <chr [1… http://… 7be23492    Clus… 2018-12-27 12:43:25 2018-12-27 04:00:10 <data.fr… Learn… <data.fr… FALSE 
    ## # ... with 990 more rows, and 9 more variables: categories <list>, entities <list>, engagement <int>,
    ## #   engagementRate <dbl>, enclosure <list>, tags <list>, recrawled <dbl>, updateCount <int>, Dropbox <chr>
…
